Estimating Joint Distributions Assisted by Survey Data • synthjoint
…
Validation of Multiple Methods

We provide a simple set of functions to implement this. We extend the ACS table assisted by a survey model using a function called synth_mlogit(). This uses a multinomial logit to estimate predicted conditional probabilities. The package emlogit by Yamauchi provides a fast implementation of the multinomial logit with a ECM algorithm with Polya-Gamma Augmentation.

acs_syn_mlogit <- synth_mlogit(race ~ female + age,
                               microdata = cc18_NY,
                               poptable = acs_race_NY,  
                               area_var = "cd")

The synthjoint package provide two other approaches to estimating the joint – these incorporate another source of information, which is the margins that are available.

race_margins <- collapse_table(acs_race_NY, area_var = "cd", X_vars = "race", 
                               count_var = "count", new_name = "count")
race_margins
#> # A tibble: 162 × 3
#>    cd    race             count
#>    <chr> <fct>            <dbl>
#>  1 NY-01 White           427756
#>  2 NY-01 Black            31440
#>  3 NY-01 Hispanic         76067
#>  4 NY-01 Asian            25671
#>  5 NY-01 Native American      0
#>  6 NY-01 All Other        15365
#>  7 NY-02 White           366313
#>  8 NY-02 Black            52312
#>  9 NY-02 Hispanic        116653
#> 10 NY-02 Asian            17395
#> # … with 152 more rows
…
The first plot does not look great. The simple product does surprisingly well. It is after all perhaps not surprising that it is hard to estimate education from age bins and gender. The main difference seems to be that in all the other three cases, we are fixing outcomes to CD-level education margins. synth_bmlogit() would do worse, for example, if we only fixed to the less granular State-level margins.

Real Applications

We have a age x gender x education table and a age x gender x race table, but not a four-way table. Here, we use the synthetic estimators to estimate this joint table.

We know the margins of education in each congressional district in NY:

educ_target <- count(acs_educ_NY, cd, educ, wt = count, name = "count")
educ_target
#> # A tibble: 108 × 3
#>    cd    educ          count
#>    <chr> <fct>         <dbl>
#>  1 NY-01 HS or Less   202298
#>  2 NY-01 Some College 169556
#>  3 NY-01 4-Year       111561
#>  4 NY-01 Post-Grad     83255
#>  5 NY-02 HS or Less   231614
#>  6 NY-02 Some College 157090
#>  7 NY-02 4-Year        99763
#>  8 NY-02 Post-Grad     71094
#>  9 NY-03 HS or Less   138929
#> 10 NY-03 Some College 127003
#> # … with 98 more rows
…
