Model synthetic joint distribution with multinomial logit — synth_mlogit • synthjoint
…
 library(dplyr)
 library(ccesMRPprep)

 # Impute the joint distribution of party ID with race, sex, and age, using
 # survey data in NY.

 synth_acs <- synth_mlogit(pid3 ~ race + age + female,
                           microdata = cc18_NY,
                           poptable = acs_race_NY,
                           area_var = "cd")
#> Warning: NAs in the microdata -- dropping data

 # original (27 districts x 2 sex x 5 age x 6 race categories)
 count(acs_race_NY, cd, female, age, race, wt = count)
#> # A tibble: 1,620 × 5
#>    cd    female age            race                n
#>    <chr>  <int> <fct>          <fct>           <dbl>
#>  1 NY-01      0 18 to 24 years White           20604
#>  2 NY-01      0 18 to 24 years Black            2654
#>  3 NY-01      0 18 to 24 years Hispanic         6264
#>  4 NY-01      0 18 to 24 years Asian            3121
#>  5 NY-01      0 18 to 24 years Native American     0
#>  6 NY-01      0 18 to 24 years All Other        1480
#>  7 NY-01      0 25 to 34 years White           27437
#>  8 NY-01      0 25 to 34 years Black            2425
#>  9 NY-01      0 25 to 34 years Hispanic        10730
#> 10 NY-01      0 25 to 34 years Asian            3168
#> # … with 1,610 more rows

 # new, modeled (original x 5 party categories)
 synth_acs
#> # A tibble: 8,100 × 9
#>    cd    race  age            female    prX pid3        prZ_givenX    prXZ count
#>    <chr> <fct> <fct>           <int>  <dbl> <fct>            <dbl>   <dbl> <dbl>
#>  1 NY-01 White 18 to 24 years      0 0.0358 Democrat        0.365  0.0130  7516.
#>  2 NY-01 White 18 to 24 years      0 0.0358 Republican      0.253  0.00903 5206.
#>  3 NY-01 White 18 to 24 years      0 0.0358 Independent     0.251  0.00899 5180.
#>  4 NY-01 White 18 to 24 years      0 0.0358 Other           0.0612 0.00219 1261.
#>  5 NY-01 White 18 to 24 years      0 0.0358 Not Sure        0.0700 0.00250 1441.
#>  6 NY-01 White 18 to 24 years      1 0.0355 Democrat        0.391  0.0139  8013.
#>  7 NY-01 White 18 to 24 years      1 0.0355 Republican      0.220  0.00782 4504.
#>  8 NY-01 White 18 to 24 years      1 0.0355 Independent     0.186  0.00659 3800.
#>  9 NY-01 White 18 to 24 years      1 0.0355 Other           0.0384 0.00136  786.
#> 10 NY-01 White 18 to 24 years      1 0.0355 Not Sure        0.165  0.00586 3378.
#> # … with 8,090 more rows
…
